U.S.A. is not eliminated
England is not eliminated
France is not eliminated
Germany is not eliminated
Ireland is eliminated by the subset R = { U.S.A. England France Germany Belgium }
Belgium is not eliminated
China is eliminated by the subset R = { France }
